mode train
model /home/getalp/lumbantn/stage/results-ftb/ftb-NPaug-p80-disco-only-bert-26.7.22/model
train ../../all_disco_data_discbracket/disco_ftb_aug/aug_NP_p80_disco-only_train.discbracket
dev ../../all_disco_data_discbracket/disco_ftb/dev.discbracket
fmt discbracket
gpu 0
t 1
S None
v 1
projective False
enc lstm
spmrl False
collins False
i 1000
l 6e-05
m 0
d 1e-07
I 0.01
G None
B 16
eval_batchsize 200
O aadam
start_averaging 3
s 10
patience 3
check 4
dcu 0.2
diff 0.3
dwu 0.3
H 250
C 128
c 64
w 32
ft None
freeze_ft False
fun tanh
feats tacl
bert True
init_bert False
bert_id flaubert/flaubert_base_cased
no_char False
no_word True
parsed None
parsed_batchsize 300
parsed_epochs 1
parsed_lr 0.0001
load_pretrained None
lstm_dim 400
lstm_layers 2
lstm_residual_connection True
lstm_layer_norm 001
trans_dmodel 1024
trans_n_heads 8
trans_n_layers 8
trans_ff_hidden_dim 2048
trans_query_dim 64
trans_value_dim 64
trans_att_dropout 0.2
trans_ff_dropout 0.1
trans_residual_att_dropout 0.2
trans_residual_ff_dropout 0.1
trans_att_proj_bias False
trans_shared_dropout False
trans_no_norm_input True
trans_no_pre_ln True
trans_no_position_embs True
trans_position_concat False
trans_position_max 300
trans_position_dropout 0.0
Training sentences: 26566
Additional non-gold training sentences: 0
Dev set sentences: 1235
warmup steps: 1660
Epoch 1.4 lr:6.0000e-05 dev: df=25.0 dp=27.59 dr=22.86 f=79.73 p=81.0 r=78.5 tag=97.7 train: df=82.8 dp=84.42 dr=81.25 f=81.62 p=82.67 r=80.61 tag=98.61 best: f=0 df=0 ep 0 avg=0
Epoch 1 tag:1669.2842 str:563.4469 lab:2004.1416 gn:0.0000
Epoch 2.4 lr:6.0000e-05 dev: df=35.09 dp=45.45 dr=28.57 f=85.71 p=86.11 r=85.31 tag=97.94 train: df=98.43 dp=98.74 dr=98.12 f=90.94 p=91.21 r=90.68 tag=99.17 best: f=79.73 df=25.0 ep 1 avg=0
Epoch 2 tag:101.6670 str:147.4111 lab:293.9606 gn:0.0000
Epoch 3.4 lr:6.0000e-05 dev: df=49.23 dp=53.33 dr=45.71 f=86.37 p=86.51 r=86.23 tag=97.95 train: df=98.44 dp=98.44 dr=98.44 f=93.4 p=93.54 r=93.27 tag=99.34 best: f=85.71 df=35.09 ep 2 avg=0
Epoch 3.4 lr:6.0000e-05 dev: df=48.48 dp=51.61 dr=45.71 f=86.42 p=86.46 r=86.37 tag=97.96 train: df=98.44 dp=98.44 dr=98.44 f=93.42 p=93.47 r=93.37 tag=99.31 best: f=86.37 df=49.23 ep 3 avg=1
Epoch 3 tag:68.1480 str:98.5397 lab:184.5080 gn:0.0000
Epoch 4.4 lr:6.0000e-05 dev: df=47.76 dp=50.0 dr=45.71 f=86.43 p=86.78 r=86.08 tag=97.99 train: df=98.91 dp=98.75 dr=99.06 f=95.01 p=95.14 r=94.87 tag=99.55 best: f=86.37 df=49.23 ep 3 avg=0
Epoch 4.4 lr:6.0000e-05 dev: df=48.48 dp=51.61 dr=45.71 f=87.38 p=87.49 r=87.28 tag=98.09 train: df=99.22 dp=98.76 dr=99.69 f=95.35 p=95.32 r=95.39 tag=99.56 best: f=86.37 df=49.23 ep 3 avg=1
Epoch 4 tag:51.1125 str:74.6594 lab:141.2974 gn:0.0000
Epoch 5.4 lr:6.0000e-05 dev: df=50.7 dp=50.0 dr=51.43 f=86.55 p=86.4 r=86.7 tag=97.96 train: df=99.69 dp=99.69 dr=99.69 f=96.02 p=95.85 r=96.19 tag=99.67 best: f=87.38 df=48.48 ep 4 avg=0
Epoch 5.4 lr:6.0000e-05 dev: df=50.0 dp=51.52 dr=48.57 f=87.49 p=87.57 r=87.41 tag=98.11 train: df=99.22 dp=99.37 dr=99.06 f=96.14 p=96.12 r=96.16 tag=99.65 best: f=86.55 df=50.7 ep 5 avg=1
Epoch 5 tag:40.1150 str:58.5507 lab:114.2506 gn:0.0000
Epoch 6.4 lr:6.0000e-05 dev: df=46.38 dp=47.06 dr=45.71 f=86.65 p=86.77 r=86.54 tag=98.01 train: df=99.53 dp=100.0 dr=99.06 f=96.79 p=96.9 r=96.67 tag=99.75 best: f=87.49 df=50.0 ep 5 avg=0
Epoch 6.4 lr:6.0000e-05 dev: df=50.75 dp=53.12 dr=48.57 f=87.55 p=87.64 r=87.47 tag=98.11 train: df=99.69 dp=99.69 dr=99.69 f=96.69 p=96.7 r=96.69 tag=99.78 best: f=87.49 df=50.0 ep 5 avg=1
Epoch 6 tag:30.8538 str:47.1006 lab:93.9783 gn:0.0000
Epoch 7.4 lr:6.0000e-05 dev: df=52.31 dp=56.67 dr=48.57 f=86.5 p=86.79 r=86.21 tag=97.94 train: df=99.06 dp=99.06 dr=99.06 f=97.46 p=97.58 r=97.35 tag=99.78 best: f=87.55 df=50.75 ep 6 avg=0
Epoch 7.4 lr:6.0000e-05 dev: df=53.73 dp=56.25 dr=51.43 f=87.52 p=87.63 r=87.42 tag=98.11 train: df=99.69 dp=99.69 dr=99.69 f=97.12 p=97.15 r=97.08 tag=99.83 best: f=86.5 df=52.31 ep 7 avg=1
Epoch 7 tag:25.3540 str:40.1610 lab:80.7907 gn:0.0000
Epoch 8.4 lr:6.0000e-05 dev: df=50.0 dp=55.17 dr=45.71 f=86.75 p=86.97 r=86.53 tag=98.11 train: df=99.53 dp=100.0 dr=99.06 f=97.91 p=97.92 r=97.9 tag=99.88 best: f=87.52 df=53.73 ep 7 avg=0
Epoch 8.4 lr:6.0000e-05 dev: df=54.55 dp=58.06 dr=51.43 f=87.54 p=87.63 r=87.45 tag=98.12 train: df=99.84 dp=100.0 dr=99.69 f=97.49 p=97.49 r=97.48 tag=99.84 best: f=87.52 df=53.73 ep 7 avg=1
Epoch 8 tag:21.2286 str:34.0085 lab:69.0086 gn:0.0000
Epoch 9.4 lr:6.0000e-05 dev: df=52.63 dp=68.18 dr=42.86 f=86.59 p=86.74 r=86.44 tag=98.07 train: df=99.37 dp=99.69 dr=99.06 f=98.35 p=98.46 r=98.25 tag=99.85 best: f=87.54 df=54.55 ep 8 avg=0
Epoch 9.4 lr:6.0000e-05 dev: df=59.7 dp=62.5 dr=57.14 f=87.55 p=87.65 r=87.46 tag=98.13 train: df=99.84 dp=100.0 dr=99.69 f=97.87 p=97.91 r=97.83 tag=99.87 best: f=87.54 df=54.55 ep 8 avg=1
Epoch 9 tag:17.8104 str:29.2904 lab:59.9593 gn:0.0000
Epoch 10.4 lr:6.0000e-05 dev: df=49.23 dp=53.33 dr=45.71 f=86.39 p=86.73 r=86.05 tag=98.02 train: df=99.38 dp=99.07 dr=99.69 f=98.5 p=98.52 r=98.48 tag=99.88 best: f=87.55 df=59.7 ep 9 avg=0
Epoch 10.4 lr:6.0000e-05 dev: df=59.7 dp=62.5 dr=57.14 f=87.55 p=87.63 r=87.47 tag=98.13 train: df=99.69 dp=99.69 dr=99.69 f=98.08 p=98.07 r=98.09 tag=99.89 best: f=87.55 df=59.7 ep 9 avg=1
Epoch 10 tag:15.0542 str:25.6000 lab:53.1671 gn:0.0000
Epoch    10: reducing learning rate of group 0 to 3.0000e-05.
Epoch 11.4 lr:3.0000e-05 dev: df=58.82 dp=60.61 dr=57.14 f=87.15 p=87.32 r=86.98 tag=98.14 train: df=99.69 dp=99.69 dr=99.69 f=99.22 p=99.27 r=99.17 tag=99.97 best: f=87.55 df=59.7 ep 9 avg=0
Epoch 11.4 lr:3.0000e-05 dev: df=58.82 dp=60.61 dr=57.14 f=87.52 p=87.65 r=87.4 tag=98.16 train: df=99.69 dp=99.69 dr=99.69 f=98.32 p=98.32 r=98.32 tag=99.9 best: f=87.55 df=59.7 ep 9 avg=1
Epoch 11 tag:8.5794 str:15.5129 lab:35.9102 gn:0.0000
Epoch 12.4 lr:3.0000e-05 dev: df=60.32 dp=67.86 dr=54.29 f=87.09 p=87.44 r=86.76 tag=98.1 train: df=99.69 dp=99.69 dr=99.69 f=99.39 p=99.46 r=99.32 tag=99.96 best: f=87.55 df=59.7 ep 9 avg=0
Epoch 12.4 lr:3.0000e-05 dev: df=55.88 dp=57.58 dr=54.29 f=87.6 p=87.75 r=87.46 tag=98.16 train: df=99.69 dp=99.69 dr=99.69 f=98.56 p=98.56 r=98.55 tag=99.92 best: f=87.09 df=60.32 ep 12 avg=1
Epoch 12 tag:5.9816 str:11.8222 lab:28.3694 gn:0.0000
Epoch 13.4 lr:3.0000e-05 dev: df=58.46 dp=63.33 dr=54.29 f=87.06 p=87.24 r=86.88 tag=98.1 train: df=99.53 dp=99.38 dr=99.69 f=99.56 p=99.58 r=99.54 tag=99.98 best: f=87.09 df=60.32 ep 12 avg=0
Epoch 13.4 lr:3.0000e-05 dev: df=55.88 dp=57.58 dr=54.29 f=87.65 p=87.77 r=87.52 tag=98.17 train: df=99.69 dp=99.69 dr=99.69 f=98.71 p=98.71 r=98.72 tag=99.92 best: f=87.09 df=60.32 ep 12 avg=1
Epoch 13 tag:5.0189 str:9.8364 lab:24.2393 gn:0.0000
Epoch 14.4 lr:3.0000e-05 dev: df=53.12 dp=58.62 dr=48.57 f=87.08 p=87.27 r=86.89 tag=98.06 train: df=99.53 dp=99.38 dr=99.69 f=99.59 p=99.61 r=99.57 tag=99.97 best: f=87.09 df=60.32 ep 12 avg=0
Epoch 14.4 lr:3.0000e-05 dev: df=54.29 dp=54.29 dr=54.29 f=87.69 p=87.8 r=87.58 tag=98.17 train: df=99.53 dp=99.38 dr=99.69 f=98.88 p=98.9 r=98.87 tag=99.93 best: f=87.09 df=60.32 ep 12 avg=1
Epoch 14 tag:4.4111 str:8.5059 lab:21.0628 gn:0.0000
Epoch    14: reducing learning rate of group 0 to 1.5000e-05.
Epoch 15.4 lr:1.5000e-05 dev: df=57.58 dp=61.29 dr=54.29 f=87.41 p=87.5 r=87.31 tag=98.11 train: df=99.69 dp=99.69 dr=99.69 f=99.71 p=99.74 r=99.68 tag=99.98 best: f=87.09 df=60.32 ep 12 avg=0
Epoch 15.4 lr:1.5000e-05 dev: df=55.07 dp=55.88 dr=54.29 f=87.68 p=87.81 r=87.55 tag=98.17 train: df=99.69 dp=99.69 dr=99.69 f=99.01 p=99.04 r=98.99 tag=99.94 best: f=87.09 df=60.32 ep 12 avg=1
Epoch 15 tag:2.7334 str:5.6332 lab:15.7107 gn:0.0000
Epoch 16.4 lr:1.5000e-05 dev: df=59.7 dp=62.5 dr=57.14 f=87.42 p=87.49 r=87.35 tag=98.18 train: df=99.69 dp=99.69 dr=99.69 f=99.78 p=99.81 r=99.76 tag=99.99 best: f=87.09 df=60.32 ep 12 avg=0
Epoch 16.4 lr:1.5000e-05 dev: df=57.14 dp=57.14 dr=57.14 f=87.63 p=87.73 r=87.53 tag=98.17 train: df=99.69 dp=99.69 dr=99.69 f=99.15 p=99.16 r=99.13 tag=99.95 best: f=87.09 df=60.32 ep 12 avg=1
Epoch 16 tag:2.1092 str:4.2704 lab:13.2015 gn:0.0000
Epoch 17.4 lr:1.5000e-05 dev: df=60.61 dp=64.52 dr=57.14 f=87.49 p=87.64 r=87.33 tag=98.15 train: df=99.53 dp=99.38 dr=99.69 f=99.82 p=99.85 r=99.8 tag=99.99 best: f=87.09 df=60.32 ep 12 avg=0
Epoch 17.4 lr:1.5000e-05 dev: df=57.14 dp=57.14 dr=57.14 f=87.62 p=87.72 r=87.52 tag=98.16 train: df=99.69 dp=99.69 dr=99.69 f=99.25 p=99.26 r=99.24 tag=99.96 best: f=87.49 df=60.61 ep 17 avg=1
Epoch 17 tag:1.8963 str:3.8076 lab:11.5692 gn:0.0000
Epoch 18.4 lr:1.5000e-05 dev: df=65.67 dp=68.75 dr=62.86 f=87.33 p=87.54 r=87.12 tag=98.11 train: df=99.69 dp=99.69 dr=99.69 f=99.8 p=99.81 r=99.78 tag=99.99 best: f=87.49 df=60.61 ep 17 avg=0
Epoch 18.4 lr:1.5000e-05 dev: df=60.0 dp=60.0 dr=60.0 f=87.65 p=87.74 r=87.56 tag=98.16 train: df=99.69 dp=99.69 dr=99.69 f=99.35 p=99.38 r=99.33 tag=99.96 best: f=87.33 df=65.67 ep 18 avg=1
Epoch 18 tag:1.8204 str:3.4380 lab:10.6716 gn:0.0000
Epoch    18: reducing learning rate of group 0 to 7.5000e-06.
Epoch 19.4 lr:7.5000e-06 dev: df=60.61 dp=64.52 dr=57.14 f=87.44 p=87.64 r=87.24 tag=98.13 train: df=99.69 dp=99.69 dr=99.69 f=99.84 p=99.86 r=99.81 tag=99.99 best: f=87.33 df=65.67 ep 18 avg=0
Epoch 19.4 lr:7.5000e-06 dev: df=61.76 dp=63.64 dr=60.0 f=87.62 p=87.71 r=87.53 tag=98.16 train: df=99.69 dp=99.69 dr=99.69 f=99.41 p=99.45 r=99.37 tag=99.97 best: f=87.33 df=65.67 ep 18 avg=1
Epoch 19 tag:1.3721 str:2.3618 lab:8.8225 gn:0.0000
Epoch 20.4 lr:7.5000e-06 dev: df=60.61 dp=64.52 dr=57.14 f=87.41 p=87.57 r=87.25 tag=98.17 train: df=99.69 dp=99.69 dr=99.69 f=99.85 p=99.87 r=99.83 tag=99.99 best: f=87.33 df=65.67 ep 18 avg=0
Epoch 20.4 lr:7.5000e-06 dev: df=61.76 dp=63.64 dr=60.0 f=87.57 p=87.66 r=87.48 tag=98.16 train: df=99.69 dp=99.69 dr=99.69 f=99.47 p=99.5 r=99.44 tag=99.97 best: f=87.33 df=65.67 ep 18 avg=1
Epoch 20 tag:1.1910 str:2.0632 lab:7.7906 gn:0.0000
Epoch 21.4 lr:7.5000e-06 dev: df=59.7 dp=62.5 dr=57.14 f=87.55 p=87.61 r=87.49 tag=98.11 train: df=99.69 dp=99.69 dr=99.69 f=99.91 p=99.93 r=99.89 tag=99.99 best: f=87.33 df=65.67 ep 18 avg=0
Epoch 21.4 lr:7.5000e-06 dev: df=61.76 dp=63.64 dr=60.0 f=87.59 p=87.68 r=87.49 tag=98.16 train: df=99.69 dp=99.69 dr=99.69 f=99.51 p=99.54 r=99.48 tag=99.98 best: f=87.33 df=65.67 ep 18 avg=1
Epoch 21 tag:1.1210 str:1.8959 lab:7.3135 gn:0.0000
Epoch 22.4 lr:7.5000e-06 dev: df=56.25 dp=62.07 dr=51.43 f=87.52 p=87.77 r=87.27 tag=98.15 train: df=99.69 dp=99.69 dr=99.69 f=99.91 p=99.93 r=99.89 tag=99.99 best: f=87.33 df=65.67 ep 18 avg=0
Epoch 22.4 lr:7.5000e-06 dev: df=63.77 dp=64.71 dr=62.86 f=87.63 p=87.73 r=87.52 tag=98.16 train: df=99.69 dp=99.69 dr=99.69 f=99.54 p=99.56 r=99.51 tag=99.98 best: f=87.33 df=65.67 ep 18 avg=1
Epoch 22 tag:0.9913 str:1.6724 lab:6.7284 gn:0.0000
Epoch    22: reducing learning rate of group 0 to 3.7500e-06.
Epoch 23.4 lr:3.7500e-06 dev: df=57.14 dp=64.29 dr=51.43 f=87.57 p=87.67 r=87.47 tag=98.14 train: df=99.69 dp=99.69 dr=99.69 f=99.91 p=99.94 r=99.89 tag=99.99 best: f=87.33 df=65.67 ep 18 avg=0
Epoch 23.4 lr:3.7500e-06 dev: df=63.77 dp=64.71 dr=62.86 f=87.62 p=87.72 r=87.53 tag=98.16 train: df=99.69 dp=99.69 dr=99.69 f=99.57 p=99.59 r=99.54 tag=99.98 best: f=87.33 df=65.67 ep 18 avg=1
Epoch 23 tag:0.8496 str:1.4223 lab:6.0949 gn:0.0000
Epoch 24.4 lr:3.7500e-06 dev: df=59.7 dp=62.5 dr=57.14 f=87.58 p=87.73 r=87.44 tag=98.14 train: df=99.69 dp=99.69 dr=99.69 f=99.91 p=99.93 r=99.89 tag=99.99 best: f=87.33 df=65.67 ep 18 avg=0
Epoch 24.4 lr:3.7500e-06 dev: df=64.71 dp=66.67 dr=62.86 f=87.64 p=87.74 r=87.55 tag=98.16 train: df=99.69 dp=99.69 dr=99.69 f=99.59 p=99.62 r=99.57 tag=99.98 best: f=87.33 df=65.67 ep 18 avg=1
Epoch 24 tag:0.7954 str:1.2445 lab:5.7136 gn:0.0000
Epoch 25.4 lr:3.7500e-06 dev: df=57.58 dp=61.29 dr=54.29 f=87.58 p=87.75 r=87.41 tag=98.13 train: df=99.69 dp=99.69 dr=99.69 f=99.94 p=99.94 r=99.93 tag=99.99 best: f=87.33 df=65.67 ep 18 avg=0
Epoch 25.4 lr:3.7500e-06 dev: df=64.71 dp=66.67 dr=62.86 f=87.64 p=87.73 r=87.55 tag=98.16 train: df=99.69 dp=99.69 dr=99.69 f=99.59 p=99.62 r=99.57 tag=99.98 best: f=87.33 df=65.67 ep 18 avg=1
Epoch 25 tag:0.7522 str:1.2062 lab:5.4612 gn:0.0000
Epoch 26.4 lr:3.7500e-06 dev: df=58.46 dp=63.33 dr=54.29 f=87.5 p=87.6 r=87.39 tag=98.12 train: df=99.69 dp=99.69 dr=99.69 f=99.92 p=99.94 r=99.9 tag=99.99 best: f=87.33 df=65.67 ep 18 avg=0
Epoch 26.4 lr:3.7500e-06 dev: df=64.71 dp=66.67 dr=62.86 f=87.65 p=87.74 r=87.56 tag=98.17 train: df=99.69 dp=99.69 dr=99.69 f=99.62 p=99.64 r=99.6 tag=99.98 best: f=87.33 df=65.67 ep 18 avg=1
Epoch 26 tag:0.6447 str:1.1592 lab:5.1846 gn:0.0000
Epoch    26: reducing learning rate of group 0 to 1.8750e-06.
Epoch 27.4 lr:1.8750e-06 dev: df=58.46 dp=63.33 dr=54.29 f=87.6 p=87.72 r=87.48 tag=98.15 train: df=100.0 dp=100.0 dr=100.0 f=99.93 p=99.94 r=99.92 tag=99.99 best: f=87.33 df=65.67 ep 18 avg=0
Epoch 27.4 lr:1.8750e-06 dev: df=64.71 dp=66.67 dr=62.86 f=87.67 p=87.76 r=87.57 tag=98.16 train: df=99.69 dp=99.69 dr=99.69 f=99.67 p=99.69 r=99.65 tag=99.98 best: f=87.33 df=65.67 ep 18 avg=1
Epoch 27 tag:0.5945 str:1.0764 lab:5.0195 gn:0.0000
Epoch 28.4 lr:1.8750e-06 dev: df=55.38 dp=60.0 dr=51.43 f=87.68 p=87.85 r=87.51 tag=98.15 train: df=100.0 dp=100.0 dr=100.0 f=99.95 p=99.96 r=99.94 tag=99.99 best: f=87.33 df=65.67 ep 18 avg=0
Epoch 28.4 lr:1.8750e-06 dev: df=64.71 dp=66.67 dr=62.86 f=87.69 p=87.79 r=87.59 tag=98.16 train: df=99.69 dp=99.69 dr=99.69 f=99.7 p=99.73 r=99.68 tag=99.98 best: f=87.33 df=65.67 ep 18 avg=1
Epoch 28 tag:0.6412 str:0.9453 lab:4.8935 gn:0.0000
Epoch 29.4 lr:1.8750e-06 dev: df=55.38 dp=60.0 dr=51.43 f=87.6 p=87.73 r=87.48 tag=98.17 train: df=100.0 dp=100.0 dr=100.0 f=99.95 p=99.96 r=99.94 tag=99.99 best: f=87.33 df=65.67 ep 18 avg=0
Epoch 29.4 lr:1.8750e-06 dev: df=64.71 dp=66.67 dr=62.86 f=87.71 p=87.8 r=87.62 tag=98.16 train: df=99.69 dp=99.69 dr=99.69 f=99.72 p=99.75 r=99.68 tag=99.98 best: f=87.33 df=65.67 ep 18 avg=1
Epoch 29 tag:0.5379 str:0.9270 lab:4.7291 gn:0.0000
Epoch 30.1 lr:1.8750e-06 dev: df=57.58 dp=61.29 dr=54.29 f=87.54 p=87.77 r=87.31 tag=98.18 train: df=100.0 dp=100.0 dr=100.0 f=99.95 p=99.96 r=99.94 tag=99.99 best: f=87.33 df=65.67 ep 18 avg=0
Epoch 30.2 lr:1.8750e-06 dev: df=57.58 dp=61.29 dr=54.29 f=87.57 p=87.76 r=87.38 tag=98.17 train: df=100.0 dp=100.0 dr=100.0 f=99.95 p=99.96 r=99.94 tag=99.99 best: f=87.33 df=65.67 ep 18 avg=0
Epoch 30.3 lr:1.8750e-06 dev: df=55.38 dp=60.0 dr=51.43 f=87.64 p=87.86 r=87.42 tag=98.16 train: df=100.0 dp=100.0 dr=100.0 f=99.95 p=99.96 r=99.94 tag=99.99 best: f=87.33 df=65.67 ep 18 avg=0
Epoch 30.4 lr:1.8750e-06 dev: df=55.38 dp=60.0 dr=51.43 f=87.57 p=87.8 r=87.34 tag=98.15 train: df=100.0 dp=100.0 dr=100.0 f=99.95 p=99.96 r=99.94 tag=99.99 best: f=87.33 df=65.67 ep 18 avg=0
Epoch 30.4 lr:1.8750e-06 dev: df=64.71 dp=66.67 dr=62.86 f=87.72 p=87.82 r=87.62 tag=98.16 train: df=99.69 dp=99.69 dr=99.69 f=99.72 p=99.76 r=99.69 tag=99.98 best: f=87.33 df=65.67 ep 18 avg=1
Epoch 30 tag:0.5262 str:0.9144 lab:4.6132 gn:0.0000
Epoch    30: reducing learning rate of group 0 to 9.3750e-07.
Epoch 31.1 lr:9.3750e-07 dev: df=55.38 dp=60.0 dr=51.43 f=87.56 p=87.7 r=87.41 tag=98.16 train: df=100.0 dp=100.0 dr=100.0 f=99.95 p=99.96 r=99.94 tag=99.99 best: f=87.33 df=65.67 ep 18 avg=0
Epoch 31.2 lr:9.3750e-07 dev: df=55.38 dp=60.0 dr=51.43 f=87.56 p=87.7 r=87.41 tag=98.16 train: df=100.0 dp=100.0 dr=100.0 f=99.94 p=99.95 r=99.93 tag=99.99 best: f=87.33 df=65.67 ep 18 avg=0
Epoch 31.3 lr:9.3750e-07 dev: df=55.38 dp=60.0 dr=51.43 f=87.61 p=87.79 r=87.43 tag=98.17 train: df=100.0 dp=100.0 dr=100.0 f=99.95 p=99.96 r=99.94 tag=99.99 best: f=87.33 df=65.67 ep 18 avg=0
Epoch 31.4 lr:9.3750e-07 dev: df=55.38 dp=60.0 dr=51.43 f=87.57 p=87.76 r=87.38 tag=98.17 train: df=100.0 dp=100.0 dr=100.0 f=99.95 p=99.96 r=99.94 tag=99.99 best: f=87.33 df=65.67 ep 18 avg=0
Epoch 31.4 lr:9.3750e-07 dev: df=64.71 dp=66.67 dr=62.86 f=87.7 p=87.81 r=87.59 tag=98.16 train: df=99.69 dp=99.69 dr=99.69 f=99.72 p=99.75 r=99.69 tag=99.99 best: f=87.33 df=65.67 ep 18 avg=1
Epoch 31 tag:0.5233 str:0.8302 lab:4.4203 gn:0.0000
Finishing training: no improvement on dev.
